{
   "website-translation-credits": {
      "translation": [
         "Karl Ove Hufthammer <https://framagit.org/huftis>",
         "Arild Torvund Olsen <https://framagit.org/arildtorvundolsen>"
      ]
   }
}
