<?xml version="1.0" encoding="UTF-8" standalone="no"?>
<svg
   width="675.06995"
   height="113.87258"
   version="1.1"
   id="svg6"
   sodipodi:docname="sp.svg"
   inkscape:version="1.1 (c68e22c387, 2021-05-23)"
   xmlns:inkscape="http://www.inkscape.org/namespaces/inkscape"
   xmlns:sodipodi="http://sodipodi.sourceforge.net/DTD/sodipodi-0.dtd"
   xmlns="http://www.w3.org/2000/svg"
   xmlns:svg="http://www.w3.org/2000/svg">
  <defs
     id="defs10" />
  <sodipodi:namedview
     id="namedview8"
     pagecolor="#ffffff"
     bordercolor="#666666"
     borderopacity="1.0"
     inkscape:pageshadow="2"
     inkscape:pageopacity="0.0"
     inkscape:pagecheckerboard="0"
     showgrid="false"
     inkscape:zoom="1.0080357"
     inkscape:cx="320.92117"
     inkscape:cy="163.18866"
     inkscape:window-width="1920"
     inkscape:window-height="1057"
     inkscape:window-x="1358"
     inkscape:window-y="-8"
     inkscape:window-maximized="1"
     inkscape:current-layer="g4" />
  <g
     transform="matrix(0.3553,0,0,0.3553,-101.13756,-67.452188)"
     id="g4"
     style="font-variation-settings:normal;opacity:1;vector-effect:none;fill:#000000;fill-opacity:1;stroke:none;stroke-width:1;stroke-linecap:butt;stroke-linejoin:miter;stroke-miterlimit:4;stroke-dasharray:none;stroke-dashoffset:0;stroke-opacity:1;-inkscape-stroke:none;stop-color:#000000;stop-opacity:1">
    <path
       d="m 721.2176,507.18263 c -1.975,-1.734 -4.244,-4.416 -5.042,-5.959 l -1.451,-2.806 v -8.202 l 4.917,-4.916 1.798,-0.0318 c 0.9889,-0.0181 2.667,-0.6892 3.729,-1.493 l 1.931,-1.461 1.5,-10.53 0.145,-45.7 -2.074,-3.874 h -1.786 c -0.9823,0 -4.175,-0.7095 -7.095,-1.577 l -5.309,-1.577 -4.768,-4.768 v -3.096 l 11.52,-0.0825 9.014,-4.424 0.2862,-35.05 0.286,-35.05 -2.378,-8.666 -4.204,-2.726 -17.53,-1.403 v -2.4 l 8.859,-8.986 25.35,-11.46 1.929,0.6122 c 1.061,0.3367 3.279,1.748 4.928,3.136 l 2.999,2.524 v 1.342 c 0,0.7379 0.7082,2.05 1.574,2.915 l 1.574,1.574 h 20.66 l 8.682,2.516 c 4.775,1.384 10.86,3.617 13.51,4.964 2.656,1.346 8.41,5.145 12.79,8.442 l 7.955,5.994 5.499,7.934 2.867,9.527 v 13.52 l -3.748,12.04 -7.41,13.25 -12.05,12.88 -6.675,4.919 c -3.671,2.705 -8.928,6.034 -11.68,7.397 -2.754,1.363 -10.19,4.194 -16.52,6.292 -6.335,2.097 -12.53,4.181 -13.77,4.631 l -2.253,0.8174 v 43.2 l 4.835,4.835 2.84,0.602 c 1.562,0.3311 3.598,1.01 4.523,1.508 l 1.683,0.9058 4.367,-0.0875 c 2.402,-0.0481 6.668,0.2288 9.48,0.6155 l 5.113,0.7032 6.364,-3.291 2.949,0.6477 c 1.622,0.3562 4.969,0.6477 7.438,0.6477 2.469,0 4.489,0.2108 4.489,0.4684 0,0.2576 -1.628,1.148 -3.617,1.979 -3.649,1.525 -11.5,6.45 -16.77,10.53 l -2.86,2.21 -13.03,3.614 -9.289,5.906 -7.511,2.122 c -4.131,1.167 -9.804,2.782 -12.61,3.589 l -5.096,1.467 h -8.266 l -3.591,-3.153 z m 44.23,-107.5 8.865,-4.454 16.15,-12.96 9.672,-11.68 5.727,-12.02 8.1e-4,-4.306 8e-4,-4.306 -1.466,-2.835 c -0.8064,-1.56 -2.864,-4.012 -4.573,-5.45 l -3.107,-2.614 -11.38,-3.419 -17.03,-0.0528 -11.07,2.502 -6.459,3.928 v 60.02 l 1.752,1.021 c 0.964,0.5615 2.27,1.035 2.903,1.051 0.6325,0.0161 5.139,-1.974 10.01,-4.424 z m 73.46,109 c -1.377,-0.8903 -3.734,-3.213 -5.238,-5.162 l -2.734,-3.543 -0.6162,-3.284 -0.616,-3.284 2.695,-5.679 8.851,-4.247 2.667,-3.647 v -55.46 l -5.258,-0.5874 c -2.892,-0.3231 -7.024,-0.9439 -9.182,-1.38 l -3.924,-0.7921 -0.3164,-0.9979 c -0.1731,-0.5488 0.0342,-1.551 0.4637,-2.227 l 0.7802,-1.229 7.742,-1.481 c 4.258,-0.8147 8.181,-1.753 8.718,-2.084 l 0.9761,-0.6032 v -81.1 l -2.923,-5.652 -8.303,-1.179 c -4.567,-0.6486 -9.768,-1.403 -11.56,-1.676 l -3.255,-0.4971 v -0.7815 c 0,-0.4298 1.014,-1.705 2.253,-2.834 2.452,-2.233 15.09,-10.32 16.13,-10.32 0.3528,0 4.656,-1.808 9.563,-4.017 l 8.921,-4.017 2.846,1.082 c 1.565,0.5952 3.636,1.797 4.601,2.67 l 1.754,1.588 v 5.464 l 2.253,0.6039 c 1.239,0.3322 6.769,0.61 12.29,0.6176 l 10.04,0.0141 7.186,1.991 c 3.952,1.095 9.749,3.125 12.88,4.51 l 5.696,2.519 6.627,4.931 c 3.645,2.712 8.295,6.654 10.33,8.76 l 3.706,3.828 4.444,10.02 0.448,7.564 0.4482,7.564 -5.862,17.01 -3.856,5.809 c -2.121,3.195 -6.115,8.281 -8.876,11.3 l -5.02,5.493 -6.388,-1.198 -1.044,1.271 c -0.5744,0.6992 -1.2,2.394 -1.391,3.766 l -0.3464,2.494 -9.856,6.44 -24.86,9.103 -2.172,0.0161 c -1.195,0.008 -2.848,0.4424 -3.674,0.9645 l -1.502,0.9492 v 42.98 l 2.388,2.542 2.387,2.542 10.4,2.159 9.938,-0.0286 c 5.466,-0.0161 12.56,-0.0801 15.76,-0.1433 l 5.817,-0.1147 1.368,1.368 -1.995,1.17 c -1.097,0.6435 -4.862,2.415 -8.367,3.937 l -6.372,2.767 -2.969,2.498 c -1.633,1.374 -3.547,2.498 -4.253,2.498 h -1.284 l -4.398,3.863 c -2.419,2.125 -6.327,4.845 -8.686,6.046 l -4.289,2.183 -19.46,5.291 -10.02,0.6809 -2.504,-1.619 z m 40.84,-108 7.234,-3.467 14.52,-10.78 14.02,-14.86 2.806,-5.789 2.807,-5.789 0.5071,-4.713 0.5074,-4.713 -3.623,-6.959 -8.012,-5.573 -15.02,-3.178 -6.51,0.5808 c -3.58,0.3195 -9.214,1.271 -12.52,2.114 l -6.009,1.533 -4.594,5.186 0.5876,56.57 2.749,3.309 h 1.658 c 0.9119,0 4.913,-1.56 8.892,-3.467 z m 345.2,77.65 c -2.754,-0.9817 -7.302,-2.948 -10.11,-4.369 l -5.098,-2.584 -3.159,-3.597 c -1.737,-1.979 -4.161,-5.5 -5.385,-7.826 l -2.227,-4.229 -0.064,-15.02 6.324,-13.35 15.54,-16.27 -2.814,-5.886 -2.813,-5.886 1.201,-6.008 -2.867,-2.379 3.109,-6.012 -4.445,-4.732 0.6352,-4.633 0.6351,-4.633 3.99,-9.019 8.518,-10.17 8.793,-5.576 10.85,-2.428 10.43,3.294 11.43,7.161 7.297,12.01 0.5124,3.821 0.5126,3.821 -4.422,14.01 -3.848,4.9 c -2.116,2.695 -5.502,7.378 -7.524,10.41 -2.022,3.03 -5.026,6.706 -6.675,8.17 l -2.998,2.662 0.8527,1.455 c 0.4689,0.8 4.956,5.811 9.972,11.14 l 9.119,9.681 2.392,-2.882 0.2013,-2.842 0.2012,-2.842 -7.501,-0.621 -5.018,-6.579 v -4.174 l 2.869,-2.869 8.33,-2.59 c 4.582,-1.424 10.58,-3.102 13.34,-3.727 l 5.008,-1.138 12.02,-0.3952 c 6.61,-0.2174 14.38,-0.6631 17.28,-0.9905 l 5.258,-0.5953 -6e-4,1.324 -4e-4,1.324 -7.123,6.51 c -3.917,3.58 -8.536,7.917 -10.26,9.637 l -3.142,3.127 -4.885,0.7092 c -2.687,0.39 -5.504,0.9464 -6.259,1.236 l -1.374,0.5273 v 9.726 l -4.274,11.42 2.878,2.088 c 1.583,1.148 4.685,3.479 6.894,5.179 l 4.016,3.091 -0.1852,1.416 c -0.1026,0.7786 -0.8092,3.102 -1.571,5.164 l -1.385,3.748 -4.719,5.023 -6.161,-0.008 -3.279,-1.999 c -1.804,-1.099 -3.884,-1.999 -4.622,-1.999 -0.738,0 -2.489,-0.9014 -3.889,-2.003 -1.401,-1.102 -3.151,-1.991 -3.891,-1.977 -0.74,0.014 -3.823,1.608 -6.852,3.542 l -5.508,3.517 -18.95,5.935 -10.09,-0.1465 -5.008,-1.785 z m 24.3,-24.24 4.403,-2.131 0.4904,-1.278 0.4903,-1.278 -20.67,-20.21 -2.418,-0.012 -2.797,3.687 c -1.538,2.028 -4.262,5.04 -6.052,6.694 l -3.255,3.008 v 2.708 l 4.256,4.343 c 2.341,2.389 5.158,4.837 6.26,5.441 l 2.003,1.099 12.89,0.0608 4.403,-2.131 z m -5.358,-61.55 7.732,-6.597 3.862,-6.334 v -6.356 l -4.967,-5.903 -6.016,-2.492 -6.923,1.299 -2.716,3.221 c -1.494,1.771 -3.323,4.671 -4.066,6.444 l -1.351,3.223 v 7.758 l 1.418,4.712 c 1.409,4.681 3.169,7.624 4.56,7.624 0.3993,0 4.206,-2.969 8.458,-6.597 z m 177.6,58.68 c -3.15,-0.4041 -8.921,-1.762 -12.83,-3.017 l -7.097,-2.282 -5.947,-3.612 c -3.271,-1.987 -8.252,-5.415 -11.07,-7.618 l -5.121,-4.006 -11.58,-13.63 -3.03,-5.704 c -1.666,-3.137 -3.951,-8.633 -5.077,-12.21 -1.126,-3.58 -3.003,-11.68 -4.172,-18.01 l -2.125,-11.5 0.4449,-4.528 c 0.6432,-6.542 3.474,-21.07 6.263,-32.15 2.777,-11.03 8.717,-28.53 11.69,-34.44 4.428,-8.806 15.57,-26.49 22.41,-35.57 3.967,-5.266 10.3,-12.74 14.08,-16.6 3.778,-3.863 10.02,-9.408 13.88,-12.32 l 7.007,-5.297 16.61,-8.23 21.46,-0.1348 9.514,3.839 c 5.233,2.112 10.42,3.914 11.52,4.006 l 2.003,0.1668 1.001,-11.11 3.716,-5.669 11.02,1.295 10.83,5.121 6.987,6.59 v 5.014 c 0,2.758 -0.2818,6.424 -0.6263,8.146 l -0.6261,3.131 -3.95,4.488 -3.951,4.488 1.26,2.038 h 3.666 l 4.626,3.746 -1.189,13.9 c -1.369,16 -2.396,23.64 -4.536,33.75 -0.8378,3.957 -1.96,9.447 -2.493,12.2 -0.5337,2.754 -1.712,8.321 -2.619,12.37 l -1.648,7.362 -4.972,9.812 h -1.736 l -0.604,-2.253 c -0.3322,-1.239 -0.6099,-4.634 -0.6176,-7.543 l -0.02,-5.29 -2.706,-6.478 -0.7386,-12.96 -0.7384,-12.96 -8.583,-25.12 -8.626,-16.82 -7.197,-7.565 -5.549,-1.393 -4.386,1.675 c -2.412,0.9214 -7.238,3.557 -10.72,5.857 l -6.336,4.182 -18.67,18.92 -14.76,22.18 -7.001,14.52 c -7.518,15.6 -12.55,28.49 -16.66,42.64 l -2.572,8.875 -0.6202,7.541 -0.6203,7.541 -4.688,5.641 1.474,2.85 c 0.8106,1.567 2.758,3.904 4.327,5.191 l 2.853,2.342 2.683,4.698 2.682,4.698 9.499,9.727 9.705,4.683 22.34,-1.05 9.698,-3.142 c 5.334,-1.728 12.29,-4.288 15.46,-5.688 l 5.759,-2.547 3.559,0.9307 5.752,-5.497 14.12,-5.397 1.866,-2.062 c 1.027,-1.134 3.043,-2.671 4.482,-3.415 l 2.615,-1.352 2.376,-5.602 5.669,-3.443 c 3.118,-1.894 7.362,-4.973 9.431,-6.843 l 3.762,-3.399 7.95,-12.59 2.996,-1.15 2.451,2.954 -1.117,2.219 c -0.6143,1.221 -2.224,6.81 -3.577,12.42 l -2.46,10.2 -9.668,17.65 -13.39,13.4 -5.747,2.972 -3.862,-0.345 -5.572,11.02 -21.51,13.4 -18.03,5.986 -7.834,1.071 c -8.579,1.173 -13.24,1.189 -21.93,0.0739 z m -944.6,-17.42 -3.868,-1.454 -5.967,-5.667 -3.933,-7.648 -1.125,-9.495 4.778,-5.554 12.55,-1.48 3.41,-3.41 0.5138,-9.235 0.5136,-9.235 6.009,-1.023 0.3107,-2.687 0.3109,-2.687 -2.815,-1.792 c -1.548,-0.9857 -3.146,-2.253 -3.55,-2.817 l -0.736,-1.025 -0.0402,-57.64 1.252,-0.3857 c 0.6885,-0.2121 2.442,-0.6448 3.896,-0.9614 l 2.644,-0.5758 0.6362,-1.657 0.636,-1.657 -1.277,-1.709 c -0.7022,-0.9401 -2.794,-3.691 -4.648,-6.113 l -3.371,-4.404 0.8096,-16.02 c 0.4452,-8.813 0.8356,-20.38 0.8674,-25.71 l 0.0584,-9.686 -4.837,-5.145 -11.19,-4.171 -4.345,-4.058 -4.266,-9.916 -0.33,-11.84 4.691,-4.994 17.27,-6.312 31.05,-5.793 36.05,0.0426 19.26,1.874 8.23,3.004 c 4.526,1.652 11.02,4.562 14.42,6.466 3.406,1.905 8.233,5.259 10.73,7.455 l 4.535,3.992 12.71,17.72 9.599,20.03 3.364,13.02 0.1812,15.02 -2.594,11.02 -7.831,16.02 -5.754,6.686 c -3.165,3.677 -8.008,8.687 -10.76,11.13 -2.754,2.446 -8.537,6.978 -12.85,10.07 l -7.844,5.626 -12.19,5.896 c -15.36,7.433 -33.29,14.61 -41.73,16.71 -3.58,0.8894 -8.18,2.046 -10.22,2.57 l -3.71,0.9524 -3.095,3.095 v 25.98 l 4.594,4.594 8.165,1.306 2.508,3.022 10.27,0.0282 8.646,3.011 0.9278,-0.5733 c 0.8734,-0.5399 21.96,-1.661 28.48,-1.515 1.652,0.037 4.582,0.0739 6.51,0.0817 1.928,0.008 4.119,0.2344 4.87,0.5034 l 1.365,0.4891 -2.474,2.98 h -1.564 c -0.8603,0 -3.622,0.9574 -6.137,2.128 -2.515,1.17 -7.277,3.384 -10.58,4.92 -3.305,1.536 -8.713,3.556 -12.02,4.489 -3.305,0.9329 -7.489,2.324 -9.298,3.092 l -3.289,1.395 h -7.498 l -2.19,1.534 c -3.274,2.293 -9.677,4.366 -20.29,6.569 l -9.514,1.975 -24.04,1.001 -3.869,-1.454 z m 74.84,-111.5 8.878,-3.508 8.668,1.3 3.211,-4.901 -1.206,-4.806 3.952,-3.578 4.301,2.302 3.049,-2.531 -0.5572,-2.786 -0.5571,-2.786 5.003,-5.717 c 6.249,-7.142 11.29,-14.69 14.78,-22.13 l 2.694,-5.75 6e-4,-9.014 6.1e-4,-9.014 -5.329,-11.37 -8.197,-8.892 -11.68,-5.241 -15.37,-2.286 -9.758,1.184 c -5.367,0.6512 -10.51,1.401 -11.43,1.666 l -1.671,0.4824 -6.938,-6.092 h -4.172 l -1.037,1.937 c -0.5701,1.065 -1.037,3.018 -1.037,4.339 v 2.402 l -3.677,2.421 c -2.022,1.332 -4.56,3.622 -5.639,5.089 l -1.962,2.668 -0.8241,15.86 -0.8243,15.86 -0.0926,57.2 1.252,1.578 c 0.6885,0.8682 1.928,1.781 2.754,2.029 l 1.502,0.4508 23.03,-4.864 8.878,-3.508 z m 94.28,109.2 c -1.652,-0.2192 -5.405,-1.076 -8.339,-1.903 l -5.335,-1.505 -8.446,-8.446 -8.798,-23 -0.4178,-13.48 -0.418,-13.48 1.189,-7.374 1.19,-7.374 2.412,-7.091 c 1.326,-3.9 4.028,-10.03 6.004,-13.63 4.303,-7.828 11.15,-16.93 17.68,-23.5 l 4.775,-4.802 16.6,-7.966 10.21,-1.21 10.39,5.656 10.64,10.22 4.995,9.915 2.252,10.61 v 25.44 l -1.045,3.765 -1.046,3.765 -4.407,2.86 -7.011,1.146 c -7.029,1.149 -41.56,9.725 -49.07,12.19 l -4.006,1.313 -3.491,7.137 1.698,4.444 c 0.934,2.444 2.75,6.15 4.035,8.236 l 2.336,3.792 6.439,4.061 12.2,-0.8725 6.42,-2.831 c 3.531,-1.557 11.83,-6.065 18.43,-10.02 l 12.01,-7.187 2.729,1.047 -0.5353,3.3 c -0.2946,1.815 -1.444,5.353 -2.554,7.864 l -2.019,4.564 h -4.976 l -3.282,3.282 0.159,4.118 c 0.0885,2.265 0.1187,4.606 0.0664,5.204 l -0.0926,1.086 -17.58,8.356 -6.982,1.479 c -6.915,1.465 -9.171,1.587 -14.99,0.8152 z m 9.573,-73.9 16.47,-3.703 8.342,-3.632 2.174,-4.063 v -21.12 l -3.229,-8.071 -4.731,-1.187 -9.042,4.377 -7.483,6.988 c -4.116,3.844 -9.02,9.101 -10.9,11.68 -1.878,2.583 -5.325,8.379 -7.659,12.88 l -4.244,8.184 1.419,2.296 1.209,-0.464 c 0.6651,-0.2552 8.619,-2.13 17.68,-4.167 z m 317.3,72.22 c -1.993,-0.7121 -5.264,-2.309 -7.27,-3.548 l -3.647,-2.254 -2.506,-4.276 c -1.378,-2.352 -4.191,-8.96 -6.251,-14.68 l -3.745,-10.41 0.1852,-32.05 4.34,-16.02 8.121,-17.03 5.425,-7.098 c 2.984,-3.904 7.92,-9.458 10.97,-12.34 l 5.545,-5.244 15.09,-6.97 9.751,-1.155 8.679,4.238 12.44,11.13 3.297,6.691 3.296,6.691 0.3244,17.55 0.3246,17.55 -2.062,5.404 -4.596,2.982 -9.044,1.559 c -4.974,0.8572 -17.59,3.835 -28.04,6.617 l -19,5.058 -9.013,4.42 0.338,12.36 4.087,9.24 7.029,2.937 14.59,-0.0322 16.89,-6.85 3.805,2.036 1.83,-1.656 c 1.006,-0.9107 2.079,-2.637 2.385,-3.835 l 0.5551,-2.18 12.6,-8.513 h 3.686 l 2.865,-2.04 c 1.575,-1.122 4.95,-2.962 7.498,-4.09 l 4.634,-2.05 0.5234,0.5236 0.5237,0.5236 -3.357,8.791 -3.905,5.159 c -2.148,2.838 -4.804,6.923 -5.904,9.078 l -1.999,3.918 -10.14,8.866 -18.48,9.299 -9.532,2.501 -3.1,-4.426 -5.394,0.008 -4.006,2.467 c -2.203,1.357 -4.682,2.462 -5.508,2.455 -0.8261,-0.006 -3.133,-0.5953 -5.125,-1.307 z m 16.14,-71.79 c 7.436,-1.647 16.34,-3.923 19.79,-5.057 l 6.27,-2.063 2.212,-4.132 0.1348,-11.62 0.1349,-11.62 -4.168,-7.01 -7.014,0.1988 -12.31,8.362 -4.759,-1.194 -3.294,3.294 0.6134,2.444 0.6136,2.444 -3.971,5.245 c -2.184,2.885 -5.84,8.681 -8.124,12.88 l -4.153,7.635 v 4.494 l 2.253,-0.6527 c 1.239,-0.359 8.337,-2 15.77,-3.648 z m 622.2,72.47 -2.233,-0.4314 -4.046,-5.144 v -3.49 l -2.829,-2.348 -6.07,2.555 c -3.338,1.405 -9.574,3.712 -13.86,5.126 l -7.789,2.572 -18.19,1.138 -10.63,-3.53 -7.728,-6.982 -3.016,-10.16 v -9.56 l 4.853,-13.37 7.497,-10.88 11.19,-8.076 24.04,-11.71 17.64,-4.4 4.206,-3.406 -2.212,-19.47 -3.616,-7.397 -16.02,-0.564 -16.02,7.789 -7.511,5.573 c -4.131,3.065 -8.087,6.172 -8.79,6.903 -0.7034,0.7316 -2.362,2.682 -3.686,4.335 l -2.407,3.005 -1.205,-1.185 -1.204,-1.185 2.703,-6.827 c 1.486,-3.755 4.138,-9.24 5.892,-12.19 l 3.189,-5.362 5.883,-4.934 c 3.235,-2.714 7.757,-6.032 10.05,-7.375 2.291,-1.343 6.178,-3.157 8.639,-4.033 l 4.474,-1.592 14.41,-0.081 10.71,4.905 7.339,6.444 4.859,10.38 2.278,10.82 0.9642,14.12 c 0.5303,7.764 0.9708,18.06 0.9791,22.88 l 0.02,8.763 h 0.9425 c 0.5182,0 1.221,-0.4507 1.561,-1.002 l 0.6189,-1.002 h 4.138 l -0.6501,3.255 c -0.3574,1.79 -1.991,6.122 -3.63,9.627 l -2.98,6.372 v 3.782 h 1.057 c 0.5808,0 3.623,-1.316 6.76,-2.925 8.406,-4.311 14.69,-7.09 16.03,-7.09 h 1.186 v 0.9307 c 0,0.5119 -1.834,3.692 -4.075,7.066 l -4.075,6.135 -0.7718,4.883 -0.772,4.883 -3.245,4.953 -10.6,6.015 -5.44,1.596 c -2.992,0.8777 -5.696,1.534 -6.009,1.459 -0.3132,-0.0751 -1.574,-0.3305 -2.803,-0.5678 z m -35.82,-22.8 7.694,-1.472 5.664,-2.583 c 3.115,-1.421 7.356,-3.75 9.424,-5.177 l 3.76,-2.594 3.997,-6.468 v -8.368 l -4.917,-4.916 h -3.852 l -3.01,-4.506 -3.833,3.443 -13.56,4.188 -3.692,3.264 c -2.031,1.795 -5.816,4.762 -8.412,6.593 l -4.72,3.33 -2.44,3.612 c -1.342,1.987 -2.748,4.648 -3.124,5.915 l -0.684,2.302 3.217,4.909 h 10.79 z m -507.6,18.1 -3.675,-3.675 -5.008,-9.882 v -4.956 l 2.494,-1.541 17.04,-0.0792 0.603,-20.03 0.6029,-20.03 1.23,-5.243 1.229,-5.243 -0.3303,-12.96 -0.3302,-12.96 -4.436,-4.716 0.579,-2.214 0.5792,-2.214 -3.367,-1.292 -4.372,2.3 -10.02,-3.83 -0.3409,-1.695 -0.3411,-1.695 4.447,-4.733 17.27,-6.344 11.14,-0.2367 5.55,3.637 2.837,6.79 v 10.08 l 2.504,-10e-4 11.46,-12.81 8.707,-4.215 h 4.609 c 2.535,0 5.357,0.2868 6.27,0.6373 l 1.661,0.6374 1.8,4.734 h 5.684 l 5.134,5.508 8.26,17.1 -0.058,1.968 c -0.032,1.082 -0.8611,5.05 -1.843,8.817 l -1.786,6.849 -8.832,3.946 -5.322,5.085 -11.96,-5.366 -1.088,-2.387 -1.087,-2.387 0.8298,-0.5129 0.8299,-0.5129 3.582,3.958 h 5.316 l 3.28,-2.504 1.541,-4.507 c 0.8477,-2.479 1.548,-5.316 1.556,-6.305 l 0.02,-1.798 -2.504,-2.504 c -1.377,-1.377 -2.504,-2.855 -2.504,-3.285 0,-0.4298 -1.043,-1.761 -2.318,-2.959 l -2.318,-2.178 h -10.94 l -4.496,3.149 -2.843,5.686 c -1.564,3.128 -3.57,7.94 -4.458,10.69 -0.8883,2.754 -2.766,11.76 -4.174,20.01 l -2.559,15 -0.2012,15.52 3.432,5.238 8.608,3.808 1.09,4.167 4.108,-2.199 3.929,2.453 4.976,-2.664 2.831,0.7067 c 1.557,0.3887 3.507,1.287 4.334,1.996 0.8263,0.7093 2.751,1.586 4.277,1.949 l 2.775,0.6595 4.18,-2.237 1.917,1.917 -3.432,3.432 -4.06,-1.062 -2.578,1.387 c -3.917,2.108 -12.1,4.527 -15.31,4.527 h -2.866 l -8.433,4.365 -11.02,0.7417 c -6.059,0.4079 -15.33,1.064 -20.61,1.459 l -9.595,0.717 -3.675,-3.675 z m 581.1,0.758 c -1.43,-1.575 -3.346,-3.978 -4.256,-5.34 l -1.656,-2.476 v -5.564 l 1.963,-1.964 1.964,-1.964 11.09,-3.225 0.571,-2.275 0.5709,-2.275 -0.3192,-35.96 -0.3193,-35.96 -4.114,-7.004 -6.902,-4.651 v -2.366 l 9.514,-3.229 c 5.233,-1.776 10.42,-3.241 11.52,-3.255 l 2.003,-0.0254 5.19,6.51 1.281,4.006 c 0.7048,2.203 1.663,4.419 2.129,4.924 l 0.8475,0.9182 14.59,-15.15 8.513,-2.285 7.555,2.034 8.499,6.25 2.391,4.159 c 1.315,2.287 2.687,5.584 3.05,7.325 l 0.6591,3.166 -1.129,6.348 c -0.621,3.491 -2.266,10.11 -3.656,14.71 l -2.527,8.361 -11.85,12.14 -0.6152,-0.6152 -0.615,-0.6152 3.427,-13.98 -1.139,-20.52 -2.022,-2.022 -11.12,3.506 -3.084,4.193 c -1.696,2.306 -3.707,5.643 -4.467,7.417 l -1.383,3.224 -5.006,32.98 v 12.24 l 1.465,2.833 c 0.8058,1.558 2.045,3.05 2.754,3.315 0.709,0.2648 6.697,0.1594 13.31,-0.2343 l 12.02,-0.7157 1.81,1.62 -2.746,3.6 c -1.51,1.98 -4.206,4.557 -5.991,5.727 l -3.245,2.127 -4.33,6.606 -5.239,3.432 -9.66,0.7247 c -5.313,0.3986 -13.94,1.041 -19.17,1.428 l -9.514,0.7027 -2.6,-2.863 z m 85.54,1.013 c -1.201,-1.03 -3.342,-3.626 -4.757,-5.768 l -2.574,-3.895 v -3.88 l 5.612,-5.612 8.294,-1.401 1.934,-2.347 0.2134,-35.05 0.2135,-35.05 -2,-9.586 -3.527,-3.897 -10.24,-3.814 -0.5462,-2.732 25.4,-4.532 2.598,1.652 c 1.429,0.9086 3.596,2.83 4.815,4.269 l 2.218,2.617 0.6482,3.255 0.648,3.255 2.281,-0.016 9.412,-11.8 11.01,-5.387 3.308,0.7127 c 1.82,0.392 4.66,1.386 6.313,2.209 3.856,1.92 8.325,6.075 10.02,9.315 l 1.327,2.539 -1.43,12.98 -1.429,12.98 -2.966,4.507 c -1.631,2.479 -3.737,5.971 -4.68,7.762 l -1.713,3.255 h -3.243 l -0.194,-16.52 -3.406,-8.474 -6.544,-4.044 h -5.026 l -2.003,4.757 c -1.102,2.616 -2.709,7.011 -3.571,9.765 -1.701,5.431 -5.19,26.72 -6.26,38.19 l -0.6661,7.14 1.17,3.546 c 0.6434,1.95 1.711,3.987 2.371,4.527 l 1.201,0.981 5.508,-0.9856 c 3.03,-0.5421 8.212,-1.107 11.52,-1.256 3.305,-0.1485 6.752,-0.5918 7.66,-0.9851 l 1.652,-0.7149 0.7088,1.147 0.7092,1.147 -13.17,12.66 -1.564,3.91 -1.565,3.91 -6.412,3.788 -9.534,0.7075 c -5.244,0.3891 -13.59,1.033 -18.55,1.43 l -9.013,0.7223 -2.183,-1.873 z m 113.9,0.0849 -5.508,-1.513 -10.64,-7.287 -7.852,-9.182 -5.836,-12.02 -2.206,-10.61 0.04,-18.43 0.9738,-6.733 0.9739,-6.733 2.15,-6.286 c 2.831,-8.274 7.422,-17.39 11.12,-22.08 l 2.977,-3.777 6.281,-4.482 c 3.455,-2.465 8.744,-5.61 11.75,-6.988 l 5.473,-2.506 14.85,-1.21 13.98,3.288 8.368,4.904 6.193,7.819 3.476,7.371 c 1.912,4.054 4.194,10.07 5.071,13.38 l 1.595,6.009 0.5599,9.514 0.5596,9.514 -1.62,8.513 c -0.8914,4.682 -2.083,10.16 -2.647,12.18 l -1.027,3.671 -6.963,4.108 v 1.55 c 0,0.8523 0.5559,2.44 1.235,3.528 l 1.235,1.978 -1.986,3.703 c -1.092,2.037 -4.087,6.004 -6.654,8.817 l -4.668,5.114 -10.69,5.904 -25.04,0.4857 -5.508,-1.513 z m 23.99,-20.74 5.523,-1.252 7.664,-7.636 1.946,-4.541 1.947,-4.541 2.208,-14.23 -0.6659,-14.07 c -0.3663,-7.739 -0.6476,-16.17 -0.6249,-18.72 l 0.04,-4.652 -2.705,-1.772 c -1.488,-0.9749 -5.104,-3.726 -8.035,-6.114 l -5.33,-4.341 h -6.57 l -10.28,3.054 -6.452,5.429 -7.618,11.79 -0.6109,3.636 c -0.3361,2 -0.8211,4.404 -1.078,5.344 -0.2568,0.9395 -2.246,3.861 -4.42,6.491 l -3.952,4.783 v 3.096 l 3.697,3.165 0.6879,5.854 0.6881,5.854 8.659,18.28 2.935,2.09 c 3.464,2.467 8.516,4.045 13.35,4.171 1.912,0.0497 5.961,-0.473 8.999,-1.162 z m 89.4,19.7 -5.18,-2.582 -2.575,-3.06 c -1.416,-1.683 -3.414,-4.705 -4.439,-6.714 l -1.864,-3.654 -1.093,-5.911 -1.092,-5.911 -0.07,-26.61 -0.071,-26.61 -1.566,-4.006 h -14.46 l -7.874,-8.436 v -5.112 l -1.16,-1.857 -1.159,-1.857 0.5458,-1.423 0.546,-1.423 11.82,-6.194 11.56,-2.586 2.39,-4.163 -0.2568,-20.36 -0.257,-20.36 -2.129,-3.978 2.387,-2.876 h 4 l 11.72,7.12 4.216,5.921 1.166,30.34 3.72,3.72 2.739,-0.6581 c 1.506,-0.362 4.316,-1.439 6.244,-2.393 l 3.505,-1.735 15.74,-1.445 7.299,-3.11 10.49,-0.2041 0.4906,1.28 0.4909,1.28 -1.732,1.412 c -0.9525,0.7764 -3.846,3.13 -6.429,5.23 -2.584,2.1 -8.52,7.233 -13.19,11.41 l -8.495,7.588 -8.841,3.343 c -4.862,1.839 -9.516,3.96 -10.34,4.714 l -1.502,1.371 -0.3226,27.76 -0.3228,27.76 0.6492,5.291 0.649,5.291 4.648,5.404 6.157,-2.965 11.4,-11.15 c 6.27,-6.134 12.38,-11.68 13.57,-12.31 l 2.171,-1.162 1.71,1.057 -0.8096,4.275 c -0.4454,2.351 -1.529,5.984 -2.409,8.072 l -1.599,3.797 -6.216,5.554 2.318,4.332 -1.573,3.779 -1.573,3.778 -4.209,4.381 c -2.315,2.41 -6.213,5.677 -8.662,7.261 l -4.453,2.88 h -11.23 l -5.181,-2.582 z"
       id="path2"
       style="font-variation-settings:normal;display:none;vector-effect:none;fill:#000000;fill-opacity:1;stroke:none;stroke-width:1;stroke-linecap:butt;stroke-linejoin:miter;stroke-miterlimit:4;stroke-dasharray:none;stroke-dashoffset:0;stroke-opacity:1;-inkscape-stroke:none;stop-color:#000000;stop-opacity:1"
       inkscape:label="path2" />
    <path
       style="font-variation-settings:normal;display:inline;opacity:1;vector-effect:none;fill:#000000;fill-opacity:1;stroke:none;stroke-width:0.3553;stroke-linecap:butt;stroke-linejoin:miter;stroke-miterlimit:4;stroke-dasharray:none;stroke-dashoffset:0;stroke-opacity:1;-inkscape-stroke:none;stop-color:#000000;stop-opacity:1"
       d="m 581.34759,484.41451 c -14.99464,-1.90559 -26.73915,-7.36522 -36.9095,-17.15797 -7.71152,-7.42526 -13.3712,-16.79611 -16.19425,-26.8133 -2.10633,-7.47394 -2.17817,-8.0999 -2.30531,-20.08648 l -0.11539,-10.87691 0.69187,-0.82227 c 0.4619,-0.54891 1.25136,-1.0084 2.37499,-1.38233 1.81266,-0.60321 2.63957,-1.27664 2.49423,-2.03131 -0.0959,-0.49807 -0.34249,-0.64912 -3.15274,-1.93145 -1.16976,-0.53377 -1.84322,-1.01865 -2.05235,-1.47762 -0.23596,-0.51788 -0.31127,-17.59824 -0.31127,-70.60112 0,-77.89685 -0.13918,-71.88719 1.84871,-79.81263 2.9256,-11.66394 8.66443,-21.49927 17.34386,-29.72431 4.20388,-3.98379 4.13747,-3.94884 8.70953,-4.58252 5.69293,-0.78905 6.00269,-0.9681 5.44418,-3.14721 -0.49155,-1.91802 -0.17809,-2.40381 2.31892,-3.59359 5.01778,-2.39088 10.61838,-4.0703 17.16633,-5.14756 l 3.44265,-0.56639 247.8712,0.0767 247.87125,0.0767 2.913,0.58858 c 13.805,2.78936 24.2495,8.24096 33.3672,17.41627 7.7473,7.79636 13.736,18.59666 16.3016,29.39945 1.2865,5.41649 1.3536,6.1019 1.4913,15.23859 0.114,7.55986 0.074,9.028 -0.2681,9.84695 -0.4544,1.08729 -1.3416,1.63277 -3.0921,1.90103 -1.4654,0.22457 -2.3834,0.79458 -2.3834,1.47996 0,0.76759 0.9879,1.27864 3.031,1.56799 1.0018,0.14186 2.0107,0.44721 2.242,0.67854 0.3823,0.38223 0.4206,7.11817 0.4206,73.83237 v 73.41179 l -0.7405,3.6627 c -1.4045,6.94688 -2.9575,11.56573 -5.7792,17.18873 -5.8597,11.67675 -15.9777,21.69063 -27.6421,27.35761 -5,2.4292 -9.1055,3.77198 -16.8159,5.50004 l -2.5158,0.56383 -223.24298,0.0803 c -122.78363,0.0442 -223.50778,0.0164 -223.83147,-0.0619 -0.96267,-0.2326 -1.64419,-1.19493 -1.82811,-2.58125 -0.19559,-1.47447 -0.86818,-2.48933 -1.49131,-2.25023 -0.22842,0.0877 -1.0889,1.07022 -1.91217,2.18343 -0.98969,1.33825 -1.80219,2.15162 -2.39801,2.40057 -0.75537,0.31562 -4.19072,0.37011 -21.23459,0.33686 -11.18336,-0.0218 -20.69092,-0.0851 -21.12787,-0.14065 z m 454.59121,-27.44943 c 0.3797,-0.7041 1.0079,-1.59786 1.3961,-1.98614 l 0.7057,-0.70596 17.9357,-0.15349 c 15.7241,-0.13456 18.1756,-0.21 19.88,-0.61181 11.6026,-2.73546 20.3694,-10.54981 23.9962,-21.3892 1.7072,-5.1023 1.7298,-5.50053 1.7326,-30.54462 0,-21.57025 0.023,-22.54377 0.501,-23.32692 0.4793,-0.78611 2.1019,-1.74233 3.5903,-2.11591 0.3886,-0.0975 0.8921,-0.4606 1.119,-0.80683 0.3715,-0.56706 0.3721,-0.69121 0.01,-1.25105 -0.224,-0.34184 -1.3064,-1.37782 -2.4056,-2.30216 -1.3259,-1.11515 -2.1347,-2.02164 -2.4037,-2.69409 -0.3592,-0.89776 -0.4058,-6.86903 -0.4071,-52.31689 0,-55.74038 0.048,-53.76171 -1.4665,-58.58709 -1.6268,-5.18411 -4.1463,-9.32827 -8.0591,-13.25589 -3.862,-3.87682 -8.04,-6.41573 -13.2462,-8.04949 -4.9513,-1.55381 1.5973,-1.46466 -107.78263,-1.46743 -97.85821,-0.002 -100.52049,-0.0156 -101.31472,-0.49994 -1.11208,-0.67814 -1.70013,-2.03314 -1.70013,-3.91746 0,-1.79948 -0.50044,-2.73331 -1.46473,-2.73331 -0.61483,0 -1.4483,1.07521 -1.4483,1.86834 0,1.06704 -2.09837,4.13588 -3.31024,4.84115 -0.40019,0.23291 -34.37833,0.3406 -139.03032,0.44065 l -138.50068,0.13241 -3.04544,0.83326 c -3.5293,0.96566 -6.72395,2.27094 -9.29169,3.79639 -9.06269,5.38405 -14.93061,15.24366 -15.52702,26.08943 -0.0801,1.4565 -0.30312,2.95984 -0.49556,3.34074 -0.369,0.73034 -1.80831,1.55842 -2.70875,1.55842 -0.80996,0 -1.35808,0.27369 -1.65346,0.82561 -0.43292,0.80896 0.17092,1.52988 1.9567,2.33608 0.89928,0.40598 1.8734,1.00529 2.16468,1.3318 0.52631,0.58988 0.53054,1.06855 0.67039,75.70843 0.13292,70.94421 0.167,75.2233 0.61394,77.06912 1.5938,6.58241 4.73665,12.07432 9.53124,16.65515 4.40008,4.20393 9.42257,6.8821 15.84084,8.44695 1.85792,0.45297 11.85735,0.48009 225.49678,0.61181 l 223.5526,0.13784 0.6757,0.6348 c 0.3716,0.34911 0.814,1.06413 0.9831,1.58892 0.5349,1.66054 0.7486,1.91901 1.5133,1.83064 0.5409,-0.0625 0.8752,-0.38759 1.4008,-1.36226 z m -263.81199,-10.622 c -4.42259,-1.22001 -8.28374,-5.25523 -9.21215,-9.62743 -0.21008,-0.98926 -0.29826,-9.70207 -0.2989,-29.5274 0,-29.50089 -0.0745,-31.80388 -1.19421,-37.3984 -2.68363,-13.40825 -10.24107,-23.59606 -22.06845,-29.74934 -9.16833,-4.76988 -22.45462,-7.2798 -34.1361,-6.44866 -19.61424,1.39557 -33.3511,8.44589 -41.69141,21.39774 -1.99512,3.09826 -4.20812,8.55256 -5.26591,12.97885 -1.4378,6.01617 -1.39754,5.00628 -1.55595,39.03423 l -0.14735,31.64595 -0.74482,1.41418 c -1.05052,1.99465 -2.64039,3.6175 -4.38169,4.47263 -1.34586,0.66096 -1.77097,0.73369 -4.28833,0.73369 -2.69186,0 -2.86664,-0.036 -4.76675,-0.98156 -1.87416,-0.93267 -2.92483,-1.93517 -21.09314,-20.1263 -22.04406,-22.07175 -22.15179,-22.20075 -20.3374,-24.35702 0.89223,-1.06036 0.83447,-1.65416 -0.27176,-2.7932 -1.20713,-1.24292 -1.31981,-1.78107 -0.79973,-3.81879 1.10878,-4.34425 4.94945,-8.2464 9.24122,-9.38912 3.05833,-0.81432 7.38185,-0.24126 10.13535,1.34336 0.71038,0.40882 3.45401,2.88523 6.09702,5.50315 l 4.80545,4.75985 0.12941,-11.6153 c 0.1383,-12.41236 0.3189,-14.6371 1.68466,-20.75159 0.76724,-3.43487 1.82719,-7.21897 2.2995,-8.2094 0.46577,-0.97666 2.61312,-2.29795 4.77041,-2.93528 1.04294,-0.30812 2.11003,-0.7503 2.37133,-0.98262 0.68724,-0.611 0.45528,-1.40619 -0.6075,-2.08273 -2.90972,-1.85228 -3.1165,-2.46977 -1.6896,-5.04521 1.61895,-2.92203 4.30762,-6.90689 6.48056,-9.6048 3.71243,-4.60935 9.84412,-10.22316 14.60708,-13.37342 0.8375,-0.55391 1.52272,-1.02695 1.52272,-1.05119 0,-0.0243 -1.08868,0.008 -2.41926,0.0716 -1.39828,0.0668 -3.04678,-0.0222 -3.90609,-0.211 -2.35388,-0.51716 -4.98488,-2.02707 -6.91563,-3.96884 -1.80356,-1.81385 -19.79486,-25.37112 -21.52119,-28.17921 -3.33329,-5.42194 -2.60506,-12.06716 1.80266,-16.44978 2.4803,-2.46618 5.82945,-3.83407 9.40113,-3.83969 3.5029,-0.005 6.49152,1.10705 8.97185,3.33992 1.30704,1.17662 20.708,26.60404 22.30432,29.23262 1.37267,2.26033 1.91691,4.71597 1.75057,7.89899 -0.16058,3.07307 -0.792,4.91136 -2.46976,7.19043 l -1.17773,1.59986 2.08031,-1.04597 c 7.08404,-3.56178 16.1981,-6.28073 25.3683,-7.56799 7.49816,-1.05255 19.73674,-1.1691 27.37421,-0.26069 9.62864,1.14525 18.63173,3.67381 26.4329,7.42379 l 3.52597,1.69494 -1.01929,-1.15798 c -2.2167,-2.51831 -3.24579,-5.29583 -3.24579,-8.76052 0,-2.63509 0.44768,-4.35636 1.75542,-6.7497 1.48796,-2.72316 20.84059,-28.92946 22.39693,-30.32875 4.06623,-3.65587 10.13152,-4.36063 15.1671,-1.76235 6.76957,3.493 9.08349,12.08263 5.06767,18.81208 -1.9424,3.25498 -18.78279,25.6788 -19.50034,25.96573 -0.36413,0.14561 -1.10115,0.34096 -1.63781,0.43412 -1.31147,0.22767 -1.90344,0.91786 -1.73808,2.02644 0.0715,0.47911 0.0367,1.11886 -0.077,1.42165 -0.26635,0.70848 -3.41021,2.34901 -5.23295,2.73068 -1.73737,0.36379 -5.17862,0.38185 -6.39305,0.0335 -0.49916,-0.14316 -0.94419,-0.22367 -0.98894,-0.17892 -0.0447,0.0447 1.07945,0.86978 2.49822,1.83335 3.97969,2.70282 6.51128,4.84975 10.26336,8.7038 9.05611,9.30226 14.71316,19.95479 17.70125,33.33248 1.61694,7.23914 1.58193,6.42684 1.68745,39.15436 0.10803,33.5021 0.25021,30.97487 -1.77682,31.58219 -1.35656,0.40643 -2.07298,1.15606 -1.69474,1.77332 0.15097,0.24637 0.77481,0.67831 1.3863,0.95989 1.55155,0.71444 1.67032,1.41171 0.594,3.48763 -1.57393,3.03571 -5.09657,5.71616 -8.44712,6.42762 -1.81789,0.38602 -5.41437,0.34236 -6.96184,-0.0846 z m 151.23538,-0.15738 c -5.7054,-0.60227 -9.38296,-1.25203 -14.16786,-2.5032 -29.64827,-7.75249 -54.17821,-29.33434 -68.27998,-60.07379 -3.85816,-8.41013 -6.36422,-15.34977 -8.27358,-22.91053 -1.46922,-5.81805 -1.5202,-5.6567 2.13925,-6.77105 1.16519,-0.35481 2.82429,-0.77253 3.68689,-0.92825 1.80902,-0.32658 2.80118,-0.88388 2.80118,-1.5734 0,-0.89407 -0.89892,-1.30819 -4.0649,-1.8727 -5.00429,-0.89228 -7.16083,-1.79839 -7.42234,-3.11864 -0.76473,-3.86079 -1.60764,-15.97283 -1.42499,-20.47631 0.11689,-2.88219 0.23643,-3.59507 0.81459,-4.85792 1.39408,-3.0451 3.28148,-4.63831 6.96242,-5.87714 1.84791,-0.62193 2.38097,-0.68852 4.60559,-0.57538 5.2384,0.26641 8.7346,2.54678 10.33935,6.74377 0.49321,1.28981 0.62029,2.35348 0.80609,6.74561 0.57521,13.59892 2.6997,25.14412 6.42315,34.90583 2.38337,6.24849 2.99494,7.66251 5.3832,12.44652 2.88236,5.7738 5.07571,9.34882 8.69415,14.17084 8.63522,11.50755 18.97344,20.17763 30.98391,25.98446 7.40952,3.58238 14.32783,5.59498 23.17979,6.74321 8.44001,1.09482 18.4342,0.1609 27.4542,-2.56549 8.65348,-2.61563 17.74186,-7.42597 25.294,-13.38775 3.48947,-2.75467 10.81954,-10.10858 13.81942,-13.86439 10.02528,-12.5514 16.98578,-27.77189 20.42658,-44.66666 1.0209,-5.01225 2.2297,-15.10388 2.2408,-18.7073 0,-0.19077 0.6074,-0.98785 1.3483,-1.77125 1.5411,-1.62952 1.5545,-2.05805 0.099,-3.16823 -1.1095,-0.8462 -1.2168,-1.94889 -0.3567,-3.66185 1.345,-2.67827 3.5559,-4.46491 6.6336,-5.36048 2.2987,-0.66887 6.7307,-0.69305 8.591,-0.0469 3.0418,1.05655 5.3454,3.26555 6.4777,6.2118 1.0963,2.85274 0.974,11.98996 -0.3021,22.57644 -0.7958,6.60143 -0.8364,6.69078 -3.191,7.04054 -1.5386,0.22856 -2.3503,0.76417 -2.3503,1.55091 0,0.52664 0.2259,0.70973 1.3276,1.07564 2.5448,0.84522 2.5785,1.11046 0.9436,7.41682 -1.5196,5.86166 -2.7278,9.59705 -4.8386,14.95926 -9.5149,24.17293 -27.3562,45.35021 -48.75562,57.87199 l -3.5231,2.06152 -3.75939,0.20508 c -6.19524,0.3379 -8.39379,0.87764 -8.39379,2.06061 0,0.26622 0.12788,0.85087 0.28417,1.29924 0.4776,1.37003 0.0419,1.76082 -3.12807,2.80502 -8.54618,2.81519 -16.88946,4.09982 -27.74277,4.27164 -5.56098,0.088 -7.82763,0.01 -11.78448,-0.40817 z M 674.10757,434.15219 c -2.90637,-0.80001 -5.42751,-2.95067 -6.85276,-5.84576 -0.85105,-1.72874 -0.9001,-1.98053 -0.9001,-4.62012 0,-2.63578 0.0503,-2.89498 0.90018,-4.63991 0.83097,-1.70608 1.95367,-2.90242 14.60123,-15.55881 l 13.70105,-13.71063 -7.95016,-7.87217 -7.95012,-7.87217 -1.53878,-3.24154 c -0.84632,-1.78285 -1.84368,-3.54645 -2.21636,-3.91912 -0.621,-0.62102 -0.80463,-0.66338 -2.19929,-0.50737 l -1.52171,0.17022 -2.05374,-2.11433 c -2.90189,-2.98753 -3.50207,-4.35791 -3.50515,-8.00299 -0.003,-2.64006 0.0452,-2.88164 0.90743,-4.63435 1.16709,-2.37217 3.0682,-4.27361 5.44036,-5.44129 1.75124,-0.86205 1.99453,-0.90975 4.63989,-0.90975 4.76975,0 3.59041,-0.94396 22.40078,17.92974 15.52895,15.58122 16.22061,16.31693 17.25202,18.35055 2.82558,5.57119 2.50192,12.06632 -0.87412,17.54196 -1.05485,1.71086 -3.8626,4.66185 -16.77873,17.6347 -8.5315,8.56901 -16.01666,15.87846 -16.63364,16.24319 -2.28566,1.3513 -6.07946,1.78761 -8.86828,1.01995 z m 41.57669,0 c -2.90637,-0.80001 -5.4275,-2.95067 -6.85276,-5.84576 -0.85105,-1.72874 -0.9001,-1.98053 -0.9001,-4.62012 0,-2.63578 0.0503,-2.89498 0.90017,-4.63991 0.83096,-1.70602 1.95336,-2.90208 14.59281,-15.55039 l 13.69261,-13.70219 -13.61452,-13.57423 c -15.92569,-15.87858 -15.30625,-15.07738 -15.30625,-19.79747 0,-2.64536 0.0477,-2.88866 0.90976,-4.63992 1.16725,-2.37126 3.06907,-4.27311 5.44035,-5.44035 1.75124,-0.86205 1.99453,-0.90975 4.6399,-0.90975 3.94682,0 5.18048,0.63304 9.22576,4.73411 3.43601,3.48341 3.45341,3.54856 1.4295,5.34959 -1.31615,1.17119 -1.36301,1.62179 -0.2448,2.35446 0.56367,0.36934 1.85475,0.58729 6.538,1.10374 1.16706,0.1287 1.40288,0.34315 11.41036,10.37563 9.63897,9.66302 10.27931,10.3644 11.28709,12.36276 0.58761,1.16521 1.27762,2.99215 1.53334,4.05988 0.63972,2.6709 0.4454,6.56641 -0.46778,9.37738 -1.18218,3.63909 -2.59536,5.49968 -9.43968,12.42831 l -6.24633,6.32326 -1.19897,-0.007 c -0.69208,-0.003 -1.46091,0.17685 -1.8185,0.42732 -0.54661,0.38284 -0.60002,0.57617 -0.45389,1.64233 l 0.16561,1.20839 -7.6158,7.64534 c -4.18872,4.20497 -8.12062,7.9451 -8.7376,8.31143 -2.27952,1.3534 -6.07632,1.79131 -8.86828,1.02278 z m 165.84283,-55.89181 c -6.3259,-1.77818 -10.10655,-8.82159 -8.35161,-15.55925 0.83113,-3.19101 2.51851,-4.84954 9.13953,-8.98328 l 4.54351,-2.83668 4.67984,0.0263 c 4.96534,0.0279 8.07833,-0.33435 8.84641,-1.02945 0.91892,-0.83161 0.4276,-1.75738 -1.29362,-2.43746 -1.237,-0.48875 -2.0026,-1.41753 -1.90016,-2.30511 0.0941,-0.81497 -1.07512,-0.0256 15.80552,-10.6718 12.56882,-7.92688 14.2907,-8.62534 21.22329,-8.60892 3.77624,0.009 4.28483,0.0693 6.35567,0.75492 1.23804,0.40985 3.17929,1.21145 4.31391,1.78131 1.98933,0.99914 36.32665,22.38805 43.08879,26.84024 1.82061,1.1987 3.81071,2.70185 4.42231,3.3403 3.11504,3.25181 3.62414,8.69973 1.25536,13.43463 -2.55335,5.10392 -8.22651,7.68145 -13.76527,6.25408 -1.95847,-0.50473 -2.77293,-0.98122 -14.55446,-8.51517 -24.75495,-15.83003 -30.48241,-19.44398 -31.03509,-19.58269 -0.37276,-0.0936 -1.02011,0.0931 -1.72886,0.49846 -0.62314,0.3564 -10.30897,6.46939 -21.52409,13.58442 -11.2151,7.11502 -21.08517,13.21933 -21.9335,13.56513 -2.01705,0.82223 -5.52345,1.03019 -7.58748,0.45001 z m 48.19077,-58.53011 c -3.60865,-0.77452 -6.31796,-2.13947 -13.37339,-6.73753 -2.62172,-1.70858 -11.14228,-7.13598 -18.9346,-12.06089 -18.41811,-11.64064 -19.88034,-12.59592 -21.34863,-13.94719 -2.85499,-2.62743 -3.80721,-5.94163 -2.99474,-10.42324 0.37522,-2.06975 1.82352,-5.05061 3.01003,-6.19518 0.8475,-0.81754 1.18482,-0.94649 3.12799,-1.19588 l 2.17807,-0.27954 0.61342,-1.11205 c 0.74526,-1.35099 1.65141,-1.60392 4.22091,-1.17814 2.26278,0.37496 4.6846,1.55003 9.21198,4.46968 4.46182,2.87736 36.82818,23.17263 37.64801,23.6071 1.26165,0.66863 -0.42527,1.63865 22.85809,-13.1441 6.77277,-4.30007 14.13285,-8.99842 16.35574,-10.44077 4.8165,-3.12529 6.36761,-3.84991 9.09011,-4.24672 5.86215,-0.85442 11.20594,2.607 13.23295,8.57152 0.49298,1.45051 0.55545,2.08319 0.43882,4.44404 -0.12132,2.45533 -0.2318,2.94063 -1.02321,4.49166 -0.64055,1.25539 -1.30372,2.07312 -2.3849,2.94087 -2.2219,1.78318 -34.54636,22.25512 -35.14006,22.25512 -0.28028,0 -1.56581,-0.53549 -2.85669,-1.18999 -1.29092,-0.65451 -2.53181,-1.19077 -2.75757,-1.1917 -1.11325,-0.004 -1.31536,1.28763 -0.6237,3.98743 0.29903,1.16726 0.34607,1.81591 0.16106,2.22191 -0.29427,0.64588 -4.99604,3.59759 -8.01206,5.0299 -1.0932,0.51916 -2.8184,1.1199 -3.83377,1.33499 -2.28897,0.48486 -6.57759,0.4794 -8.86386,-0.0113 z m -223.60641,-19.2143 c -3.12368,-0.73352 -6.36383,-3.35373 -8.04293,-6.50408 -1.59735,-2.99694 -1.64854,-3.57139 -1.65285,-18.55302 -0.003,-12.01357 0.0463,-13.69208 0.43446,-14.6623 0.40813,-1.02 0.40803,-1.18035 0,-2.32253 -0.89478,-2.49664 -0.37621,-7.21062 1.09264,-9.93241 1.57242,-2.91374 5.07858,-5.57171 8.21542,-6.228 1.79588,-0.37573 4.66699,-0.37562 6.46202,2.5e-4 4.54519,0.95172 8.74258,5.15091 9.71197,9.71612 0.40541,1.90918 0.41522,35.85932 0.0108,38.07236 -0.85487,4.68026 -4.9185,9.14766 -9.36834,10.29919 -1.70936,0.44235 -5.21663,0.50083 -6.86209,0.11442 z m 923.25985,183.91017 c -0.3641,-0.0538 -1.5558,-0.22618 -2.6483,-0.38306 -3.1133,-0.44718 -8.0464,-1.68876 -11.5195,-2.89933 -12.9204,-4.50333 -23.7958,-12.9487 -31.1646,-24.20083 -4.708,-7.18901 -7.3818,-13.93518 -9.4025,-23.7231 -0.5175,-2.50642 -0.8362,-26.01053 -0.3736,-27.55711 0.41,-1.37092 1.1425,-1.89436 4.3908,-3.13751 3.083,-1.17988 3.8446,-1.66376 3.8446,-2.44278 0,-0.82265 -1.1506,-1.30364 -3.7476,-1.56656 -3.4084,-0.34506 -3.8921,-0.47454 -4.3427,-1.16236 -0.3451,-0.52658 -0.3824,-8.96677 -0.3081,-69.55836 0.084,-68.65245 0.087,-68.97084 0.6353,-71.60726 0.303,-1.45651 0.9117,-4.02518 1.3527,-5.70815 4.9932,-19.05523 19.2217,-34.76216 38.0564,-42.01056 3.0583,-1.17698 8.3345,-2.52318 12.7112,-3.24324 l 3.4427,-0.56638 250.1222,0.0767 250.1222,0.0767 2.913,0.58858 c 11.0883,2.24041 19.7156,6.08496 27.8252,12.39958 2.992,2.32975 3.8207,3.3303 3.8207,4.61264 0,1.32233 0.4363,1.73555 2.4205,2.29228 1.4543,0.40804 1.7532,0.62244 3.063,2.19643 5.4492,6.54839 10.5082,16.7616 12.5396,25.31479 1.491,6.278 1.3921,3.50653 1.4949,41.90815 0.067,24.80556 0.01,35.71331 -0.1867,36.08082 -0.3289,0.61445 -1.6562,1.32442 -3.7069,1.9827 -3.37,1.08182 -3.2174,2.61624 0.3424,3.44181 2.3835,0.55277 3.0112,0.87014 3.353,1.69521 0.2053,0.4957 0.2674,14.01836 0.2151,46.90492 -0.069,43.56577 -0.1009,46.3366 -0.5563,48.44971 -0.2657,1.23267 -0.5971,2.45431 -0.7364,2.71474 -0.1394,0.26042 -0.8506,0.7761 -1.5805,1.14595 -0.7298,0.36985 -1.3949,0.84933 -1.4778,1.06548 -0.083,0.21617 0.1907,0.89655 0.6082,1.51196 0.4176,0.61539 0.8489,1.33871 0.9585,1.60735 0.4492,1.10051 -3.2114,9.80802 -6.0846,14.47388 -6.1,9.90584 -15.2514,18.27081 -25.3634,23.18358 -4.9998,2.42909 -9.1024,3.77095 -16.8161,5.5002 l -2.5157,0.56398 -250.5195,0.0381 c -137.7856,0.0209 -250.8173,-0.006 -251.1814,-0.0596 z m 497.4216,-30.68151 c 11.9065,-1.79463 21.8917,-10.19126 25.7178,-21.62615 1.5254,-4.55905 1.7299,-6.68725 1.7317,-18.02653 0,-8.54097 0.063,-10.1454 0.4254,-11.05113 0.4909,-1.2267 1.5118,-1.94756 3.416,-2.412 1.8606,-0.45383 2.2509,-0.70321 2.2509,-1.43833 0,-0.75429 -0.4856,-1.05803 -2.1185,-1.32507 -2.0932,-0.34232 -3.2036,-0.9229 -3.6057,-1.88528 -0.3089,-0.73912 -0.3668,-11.09054 -0.3681,-65.70046 0,-71.74247 0.1018,-67.37863 -1.7285,-72.84826 -3.2307,-9.65489 -10.6493,-17.07622 -20.2921,-20.29957 -5.6269,-1.88097 9.7517,-1.72903 -175.1766,-1.73075 l -167.1416,-0.002 -0.5803,1.91061 c -0.7018,2.31066 -1.9327,4.812 -2.7894,5.66875 -0.7691,0.769 -1.5434,0.79636 -2.8419,0.10041 -2.1308,-1.14206 -2.8144,-0.43535 -2.1887,2.26279 0.6513,2.8083 0.5378,4.26307 -0.5125,6.56786 -2.77,6.07831 -4.6513,13.82201 -5.0824,20.91933 l -0.1751,2.88201 1.1672,-0.73185 c 0.6419,-0.40252 1.8225,-1.17456 2.6236,-1.71565 2.055,-1.38805 6.8776,-3.7635 9.5344,-4.6963 3.0775,-1.08047 7.4594,-2.08695 11.2013,-2.57277 4.1132,-0.53404 11.8085,-0.53511 14.914,-0.002 9.1914,1.57765 19.8975,5.97925 27.2153,11.18901 4.4425,3.16278 10.4283,9.86679 14.0035,15.68373 2.8364,4.61473 6.0493,12.02615 7.8615,18.13442 1.1572,3.90066 1.1512,4.39722 -0.068,5.64557 -1.4844,1.5202 -1.3109,2.31318 0.6437,2.94225 1.986,0.63919 2.035,0.81915 3.3117,12.18762 l 0.9389,8.36045 -0.1411,9.53351 c -0.2256,15.25911 -1.4079,23.28695 -5.1023,34.64606 -4.7114,14.48625 -10.3766,25.18298 -18.1171,34.20705 -2.8622,3.3369 -9.4871,9.73964 -12.4582,12.04048 -18.1717,14.07241 -41.2623,21.19868 -68.6684,21.19261 -13.6824,-0.003 -24.4214,-1.20169 -34.4899,-3.84973 -8.9766,-2.36092 -19.9718,-6.84533 -20.6995,-8.44237 -0.2845,-0.6245 -0.227,-0.7861 0.6087,-1.71114 1.0452,-1.15694 1.1762,-1.99472 0.3788,-2.42154 -0.8165,-0.43698 -3.3996,-0.79414 -7.4149,-1.02527 l -3.5985,-0.20715 -1.6064,-1.09084 c -4.4442,-3.01799 -11.8752,-9.74431 -15.5738,-14.09693 -9.4552,-11.12714 -16.5993,-25.73775 -20.5486,-42.02509 -0.8587,-3.54105 -1.0518,-4.77367 -0.9528,-6.07918 0.099,-1.30475 0.02,-1.80874 -0.388,-2.48001 -1.6805,-2.76331 -2.658,-21.26713 -1.6723,-31.65679 1.3213,-13.92834 6.1053,-28.32643 13.4176,-40.38298 2.1447,-3.53622 5.8359,-8.58732 6.5575,-8.97352 0.6708,-0.35897 8.3038,-2.2813 9.947,-2.50505 2.8167,-0.38358 3.9229,-1.1257 3.3296,-2.23407 -0.2624,-0.49041 -0.8496,-0.78342 -2.7173,-1.35601 -1.3542,-0.41519 -2.3336,-1.24755 -2.3336,-1.98321 0,-1.3369 5.9145,-5.79874 11.243,-8.4816 3.6098,-1.8175 6.8912,-2.99898 11.1342,-4.009 2.607,-0.62056 3.5885,-0.70662 9.3409,-0.81903 6.7813,-0.13251 9.9936,0.0949 14.2281,1.00712 6.1247,1.31945 10.9284,3.33544 16.8427,7.06828 l 3.3369,2.10613 0.1767,-4.31146 c 0.563,-13.7362 2.6159,-22.87616 7.2082,-32.09212 l 2.1443,-4.30332 -63.8461,0.002 c -69.4105,0.002 -66.2548,-0.0634 -71.1297,1.46644 -11.3251,3.55402 -20.1122,13.13678 -22.3607,24.38554 -0.2292,1.14671 -0.4773,2.35155 -0.5513,2.67742 -0.074,0.32587 -0.419,0.77887 -0.7666,1.00667 -0.6978,0.45715 -6.0497,1.50945 -10.6861,2.10109 -3.5581,0.45403 -4.3978,0.78951 -4.5146,1.80353 -0.1296,1.1244 1.4077,1.67956 5.6486,2.03987 1.8918,0.16072 3.8567,0.40812 4.3665,0.54976 1.5273,0.42435 4.5605,2.1821 5.1463,2.9822 l 0.5474,0.74764 0.1406,75.65282 c 0.133,71.46285 0.1669,75.76106 0.614,77.60714 1.594,6.58266 4.7368,12.07436 9.5312,16.65515 4.812,4.59745 10.938,7.64848 17.3878,8.65989 1.8626,0.29212 44.5048,0.35717 247.2092,0.37709 215.2539,0.0211 245.2741,-0.0236 247.5642,-0.36871 z m -185.3317,-20.28838 c -11.6997,-1.23017 -22.204,-6.11649 -30.2744,-14.08282 -1.2119,-1.19635 -2.385,-2.55729 -2.6066,-3.02427 -0.2217,-0.46697 -0.7886,-1.07652 -1.2598,-1.35455 -1.0341,-0.61012 -4.0686,-4.58965 -6.3863,-8.37511 -4.6786,-7.64191 -8.2876,-16.56679 -10.8214,-26.76084 -2.5763,-10.36494 -3.5655,-18.40259 -3.7806,-30.71908 -0.2029,-11.60961 0.3521,-22.577 1.6616,-32.83765 1.2391,-9.7088 4.2788,-20.26978 8.3191,-28.90273 l 1.2568,-2.6856 1.703,-0.81275 c 1.9929,-0.95113 2.4967,-1.66524 2.213,-3.13647 -0.1068,-0.55415 -0.2535,-1.31723 -0.326,-1.69572 -0.2895,-1.51312 8.2264,-12.80196 11.7744,-15.60846 6.6743,-5.27936 17.2107,-1.16357 18.8752,7.37306 0.8307,4.26126 -0.2705,7.35375 -4.357,12.23381 -11.2226,13.40244 -16.0323,28.04152 -17.1059,52.06536 -0.6348,14.20377 0.031,25.26249 2.1128,35.08263 4.4287,20.89227 14.3044,34.62909 27.6781,38.49898 6.307,1.82505 11.7689,1.41972 16.9412,-1.25723 1.5894,-0.82259 2.7362,-1.70367 4.5446,-3.49159 7.0497,-6.96999 11.4544,-18.82867 12.6919,-34.16971 0.2467,-3.05867 0.5572,-6.0081 0.69,-6.55429 0.3786,-1.55781 1.1787,-1.36631 3.0513,0.73023 1.6493,1.84661 2.2674,2.21386 2.8759,1.70881 0.6111,-0.50721 0.454,-1.9288 -0.5423,-4.90683 -1.0236,-3.05939 -1.1219,-3.95502 -0.5273,-4.80386 0.9848,-1.40602 6.0551,-2.33371 9.192,-1.68177 3.3565,0.69757 6.4744,3.05871 7.991,6.0515 0.7886,1.55637 0.9917,2.78778 1.7557,10.6479 0.5995,6.16835 1.3714,10.30838 2.8124,15.08439 4.3084,14.27935 11.1487,21.9862 20.951,23.60502 3.6933,0.60995 9.8039,-0.41939 14.1932,-2.3909 6.9012,-3.0998 13.1266,-9.69755 17.3692,-18.40825 6.8276,-14.0175 9.5652,-30.97034 8.5159,-52.73574 -0.6358,-13.18779 -2.1437,-22.49418 -4.9953,-30.8298 -2.9804,-8.71217 -5.9888,-14.11335 -12.2426,-21.98003 -1.7947,-2.25758 -3.5704,-4.76013 -3.9458,-5.56121 -0.616,-1.31456 -0.682,-1.7662 -0.6772,-4.63434 0.01,-2.65026 0.1024,-3.42151 0.5902,-4.64556 1.1767,-2.95252 4.2272,-5.88876 7.3047,-7.03116 1.0412,-0.38649 2.0439,-0.50299 4.2735,-0.49647 2.6084,0.008 3.0771,0.0845 4.4834,0.73545 2.0156,0.93301 3.4848,2.14808 5.6301,4.65625 l 1.7233,2.01473 -0.1586,1.37105 c -0.1456,1.25782 -0.1011,1.41637 0.5391,1.91994 0.3838,0.30189 0.9498,0.55312 1.258,0.55828 0.9769,0.0164 1.6816,0.60198 3.016,2.50648 8.0592,11.50244 13.7472,26.98397 15.6647,42.63588 1.3384,10.92451 1.9803,29.28585 1.3702,39.19331 -0.5991,9.7276 -3.2023,24.52348 -4.5739,25.99586 -0.3022,0.32442 -1.2989,0.77198 -2.2967,1.0313 -3.3976,0.88306 -3.8692,1.8549 -1.4702,3.02987 1.7299,0.84727 2.2234,1.26757 2.2234,1.89341 0,0.99469 -2.7997,7.85858 -5.0606,12.40686 -3.83,7.70466 -7.6332,12.98242 -13.2667,18.41047 -4.9078,4.72873 -9.2437,7.64082 -15.1951,10.20549 -5.3519,2.30631 -9.8777,3.41321 -16.2637,3.97767 -12.6253,1.11594 -22.287,-1.84434 -32.4189,-9.93294 -3.0634,-2.4456 -8.3736,-7.94389 -10.0652,-10.42176 -0.7176,-1.05102 -1.3908,-1.91096 -1.496,-1.91096 -0.1052,0 -0.4535,0.50646 -0.7739,1.12548 -1.2324,2.38086 -3.7083,5.49432 -7.0182,8.82564 -7.326,7.37324 -15.1317,11.15381 -25.3461,12.27602 -2.9381,0.32281 -8.8722,0.31751 -11.9936,-0.0106 z m -13.0953,-73.08609 c -3.9611,-0.77658 -7.4096,-4.42795 -8.2205,-8.70411 -1.1417,-6.02004 1.2598,-11.50268 6.0692,-13.85627 l 1.7408,-0.85191 9.7113,-0.13241 9.7114,-0.1324 0.6742,-0.63389 c 0.3708,-0.34863 0.8722,-1.2424 1.1141,-1.98615 2.168,-6.66441 11.6096,-33.73371 11.8553,-33.98944 0.174,-0.18106 1.0279,-0.45833 1.8976,-0.61616 3.2751,-0.59437 3.7154,-1.80834 1.1346,-3.1282 -1.4173,-0.7248 -1.4769,-1.06864 -0.6347,-3.6617 0.416,-1.28035 1.0379,-2.94591 1.3822,-3.70124 0.3443,-0.75533 0.626,-1.55295 0.626,-1.77247 0,-0.75291 3.1323,-9.41976 3.6849,-10.19575 0.3122,-0.43852 0.5523,-1.18717 0.5523,-1.72248 0,-0.52076 0.1741,-1.39613 0.387,-1.94527 0.213,-0.54914 1.3582,-3.7989 2.5451,-7.22169 3.0233,-8.71874 4.6067,-11.78422 7.4967,-14.51368 2.1608,-2.0409 3.4635,-2.56421 6.3872,-2.56586 2.0722,-0.001 2.5792,0.0948 3.8836,0.73544 2.2448,1.10234 4.4064,3.56275 6.0389,6.8736 0.9326,1.89153 4.7688,12.69924 12.6204,35.55523 6.2042,18.0607 12.0424,35.10184 12.9738,37.86921 0.9314,2.76736 1.9253,5.4122 2.2087,5.8774 l 0.5152,0.84583 9.8775,0.081 9.8774,0.081 1.5234,0.71392 c 1.8684,0.8756 4.1113,2.95065 5.0464,4.66875 1.9187,3.52519 1.9858,8.95898 0.1551,12.5475 -1.3634,2.67261 -4.4026,4.94563 -7.3569,5.50238 -2.3232,0.4378 -26.1762,0.33375 -28.7535,-0.12544 -3.0574,-0.54473 -5.4343,-1.81168 -7.7577,-4.13502 -2.625,-2.62503 -3.551,-4.63642 -7.5977,-16.50225 l -3.3343,-9.77666 0.2639,-3.71518 c 0.2391,-3.36918 0.2212,-3.76208 -0.192,-4.21875 -0.3421,-0.37793 -0.6955,-0.47142 -1.4166,-0.3747 -0.5284,0.0709 -1.1151,0.0334 -1.3038,-0.0831 -0.1886,-0.11659 -1.0166,-2.15887 -1.8398,-4.5384 -2.9257,-8.45599 -5.6989,-16.10684 -5.839,-16.10885 -0.078,-8.7e-4 -1.0136,2.64945 -2.0787,5.89019 -3.7168,11.30935 -14.8992,42.96649 -15.7234,44.51279 -1.0921,2.04907 -4.0385,5.17626 -6.0978,6.47209 -2.1299,1.34023 -4.6661,2.34112 -6.8162,2.68995 -2.0746,0.33658 -25.2699,0.33065 -26.9916,-0.007 z m -153.1286,67.00994 c 16.8231,-1.20467 32.2526,-6.58229 43.7621,-15.25219 12.0438,-9.07243 20.9816,-25.41203 24.4599,-44.71577 1.0929,-6.06516 1.4923,-10.4459 1.654,-18.14015 0.3606,-17.16583 -1.5835,-28.74927 -6.4669,-38.53126 -2.2769,-4.56092 -4.8345,-8.17167 -8.222,-11.60745 -4.6977,-4.76459 -10.76,-7.93108 -17.4007,-9.08883 -2.8878,-0.50347 -9.6052,-0.34757 -12.387,0.28749 -4.7039,1.07378 -9.3653,3.45909 -12.6942,6.49573 -2.4925,2.27369 -4.9184,5.35158 -10.5394,13.37221 -5.3016,7.56471 -7.0632,9.6013 -9.2225,10.66167 -1.3103,0.64344 -1.8023,0.73562 -3.8837,0.72764 -2.0905,-0.008 -2.5606,-0.10131 -3.8256,-0.75907 -2.2459,-1.16773 -4.0678,-3.24589 -8.6131,-9.82457 -8.7911,-12.72401 -11.2589,-15.43503 -16.627,-18.26569 -4.4597,-2.35164 -8.5997,-3.19197 -14.709,-2.98556 -4.6098,0.15575 -7.0933,0.78274 -11.3078,2.85476 -12.4663,6.12906 -21.6501,21.80955 -25.4314,43.42194 -1.7429,9.96293 -0.9232,23.6854 2.1437,35.88307 5.7324,22.79893 17.0563,37.87006 35.337,47.03067 8.3325,4.17552 16.6307,6.48091 27.9761,7.77232 3.1836,0.36238 6.3247,0.70165 6.9801,0.75395 2.8187,0.22485 15.4508,0.16447 19.0174,-0.0909 z m -13.721,-8.27763 c -2.0589,-0.59633 -3.2629,-1.30572 -4.7899,-2.82217 -2.9735,-2.95281 -3.7109,-7.88804 -1.7793,-11.90854 0.8969,-1.86695 3.1509,-4.07152 5.0567,-4.94594 1.4373,-0.65947 1.9624,-0.75538 4.1607,-0.75985 2.2668,-0.004 2.6862,0.0756 4.2379,0.811 4.7408,2.24677 7.1124,7.51598 5.6072,12.45831 -1.4041,4.61011 -4.6104,7.1599 -9.3154,7.40772 -1.1688,0.0615 -2.4766,-0.0374 -3.1779,-0.24053 z m -47.3362,-23.62381 c -3.1504,-0.68438 -5.6472,-2.59845 -7.0872,-5.43327 -1.0169,-2.00165 -1.2519,-3.93704 -1.0779,-8.87423 0.087,-2.46969 0.1484,-4.90743 0.1362,-5.41721 -0.012,-0.50978 -0.075,-15.82298 -0.1416,-34.02932 -0.081,-22.23732 -0.029,-33.69309 0.1566,-34.90193 0.478,-3.11515 1.8271,-5.12532 4.763,-7.09712 3.1365,-2.10647 8.8048,-2.40185 12.6152,-0.65737 1.6786,0.76848 3.799,2.68078 4.7255,4.26173 1.5166,2.58794 1.4681,1.38169 1.4681,36.46417 v 32.25237 h 34.2891 34.2891 l 0.071,-33.03626 0.071,-33.03624 0.8174,-1.72133 c 2.3257,-4.8978 8.6426,-7.48394 14.5327,-5.94973 3.2819,0.85481 6.1102,3.17159 7.5048,6.14764 l 0.7139,1.52342 0.081,10.58423 c 0.044,5.82132 0.012,10.85476 -0.07,11.18541 -0.091,0.36104 -0.5987,0.82822 -1.2721,1.1696 -1.9135,0.97009 -1.9664,1.44477 -0.3268,2.93687 1.4159,1.28862 1.4789,1.82353 0.402,3.41281 -0.4343,0.64093 -0.7918,1.28189 -0.7945,1.42436 0,0.14246 0.472,0.69475 1.0545,1.2273 l 1.0593,0.96827 v 23.29859 c 0,14.6322 -0.1,23.82916 -0.2685,24.72501 -0.8185,4.34797 -4.4836,7.84086 -9.115,8.68681 -1.0866,0.19845 -14.7559,0.28701 -44.3032,0.28701 h -42.7317 l -0.65,-0.65001 c -0.3575,-0.35751 -0.65,-0.86726 -0.65,-1.13277 0,-0.74687 -0.7628,-1.65989 -1.3868,-1.65989 -0.3458,0 -1.1996,0.66286 -2.2171,1.72133 l -1.655,1.72134 -1.6739,-0.0211 c -0.9206,-0.0116 -2.4186,-0.18282 -3.3287,-0.38053 z M 485.21805,456.92505 c -4.6936,-1.03765 -6.22937,-2.25977 -19.88964,-15.82743 -10.79787,-10.72467 -11.72814,-11.58256 -12.31412,-11.35565 -0.34863,0.13497 -1.76597,0.91887 -3.14966,1.74198 -6.05129,3.59974 -15.4341,7.83671 -21.7152,9.80582 -9.09906,2.85256 -18.7659,4.33272 -29.79222,4.56165 -11.87597,0.2466 -21.71017,-1.00604 -32.74866,-4.17136 -8.08595,-2.31868 -17.16391,-6.29733 -24.3535,-10.67356 -1.11084,-0.67613 -2.29056,-1.22934 -2.62161,-1.22934 -0.43926,0 -3.75763,3.13737 -12.28056,11.61065 -12.3076,12.23591 -13.05476,12.8691 -16.66613,14.12387 -2.27409,0.79014 -8.9766,1.0017 -11.67771,0.36862 -5.78426,-1.35572 -10.74584,-6.13028 -12.64866,-12.1719 -0.65469,-2.07868 -0.92446,-7.50129 -0.50622,-10.17562 0.35785,-2.28844 1.28207,-4.68485 2.53591,-6.57542 l 0.90412,-1.36329 3.39168,-1.12077 c 4.65896,-1.53953 4.91932,-1.81597 3.52408,-3.74204 -0.43695,-0.6032 -0.79446,-1.2234 -0.79446,-1.37827 0,-0.15487 3.71898,-4.00744 8.26437,-8.56128 l 8.26436,-8.27969 -0.69208,-0.73389 c -2.26299,-2.39972 -10.80507,-18.48681 -10.80507,-20.34892 0,-1.096 0.90642,-1.79674 3.04445,-2.35363 1.72908,-0.45037 2.25195,-0.79522 2.25195,-1.4853 0,-0.73186 -1.03876,-1.30595 -2.3761,-1.31317 -1.46205,-0.008 -3.24629,-0.38406 -4.57629,-0.96483 -0.89671,-0.39155 -1.04461,-0.60498 -1.51141,-2.18094 -4.85876,-16.4033 -5.60168,-36.85926 -1.97921,-54.49568 0.80523,-3.92037 3.91483,-14.07285 5.40742,-17.65474 10.54709,-25.31027 31.74,-46.15128 57.07265,-56.12499 11.53792,-4.5426 23.20702,-6.7202 37.47198,-6.99276 6.23997,-0.11923 8.0726,-0.0579 12.80125,0.42849 9.57003,0.98434 14.98013,2.10985 22.92009,4.76826 5.65292,1.89268 9.72046,3.61498 15.02642,6.36255 4.78727,2.47898 10.28861,5.91298 10.85323,6.7747 0.32192,0.49131 0.36871,1.04848 0.22581,2.6886 -0.16434,1.88585 -0.13156,2.11293 0.37065,2.56706 0.72889,0.65912 4.24661,1.48329 6.34203,1.48588 0.9199,10e-4 1.93285,0.13831 2.25097,0.30482 1.90677,0.99798 9.09804,8.48514 13.15234,13.69352 8.86704,11.39102 15.25317,24.55691 18.69045,38.53284 1.249,5.07852 1.88112,8.85558 2.53241,15.13231 0.4717,4.54589 0.52943,6.38462 0.40735,12.97617 -0.18495,9.98657 -0.96535,16.77428 -2.84678,24.76064 -2.4031,10.20066 -6.71925,20.21291 -13.11535,30.42389 -1.22122,1.94959 -2.2223,3.79671 -2.22463,4.10471 -0.003,0.38955 3.65332,4.18715 12.01257,12.47689 12.6686,12.56324 13.25094,13.23875 14.49699,16.81604 0.80066,2.29855 1.02297,8.42031 0.41108,11.31836 -1.32236,6.26286 -6.56538,11.72847 -12.77396,13.31638 -2.43709,0.62328 -8.02457,0.69189 -10.56738,0.12977 z m -79.93013,-42.08933 c 8.6763,-1.17191 15.98758,-3.40304 23.39339,-7.13877 14.01026,-7.06724 24.84737,-17.59115 31.98359,-31.05926 1.47868,-2.79063 1.55182,-2.87665 3.14834,-3.70147 0.89899,-0.46444 2.56734,-1.03798 3.70748,-1.27454 3.33464,-0.69185 4.03464,-0.92835 4.31868,-1.4591 0.60227,-1.12535 -0.083,-1.65404 -2.90691,-2.24284 -3.39389,-0.70765 -3.6491,-1.42258 -2.28407,-6.39797 1.95438,-7.12329 2.68597,-12.57734 2.66086,-19.83714 -0.0286,-8.28028 -1.13912,-15.1458 -3.6839,-22.77449 -3.96653,-11.89087 -9.92515,-21.3999 -18.83773,-30.06202 -5.79702,-5.63409 -11.53476,-9.63056 -19.03545,-13.25857 -20.12342,-9.73351 -43.02796,-9.77967 -63.2919,-0.12757 -8.73445,4.16038 -17.30002,10.53333 -23.26833,17.31209 -1.66643,1.8927 -2.65717,2.79023 -3.41459,3.09329 -1.42087,0.56851 -5.16075,1.45543 -6.15472,1.4596 -1.29815,0.006 -2.75492,0.51682 -3.05162,1.07124 -0.44455,0.83063 0.0968,1.44283 1.83665,2.07723 1.70073,0.62011 2.67148,1.55703 2.67148,2.57836 0,0.34289 -0.65562,1.8076 -1.45691,3.2549 -4.32718,7.81571 -7.44231,17.60785 -8.64236,27.16652 -0.42498,3.38498 -0.42199,13.24116 0.005,16.68365 1.0982,8.85267 3.3096,16.23248 7.30054,24.36339 8.18656,16.67882 22.54934,29.64591 40.0008,36.11373 6.11038,2.26461 12.99668,3.82042 19.99388,4.51714 3.33175,0.33176 11.31265,0.14171 15.00768,-0.3574 z m -10.79778,-11.24307 c -1.64342,-0.34692 -3.33957,-1.53045 -4.13668,-2.88649 l -0.7353,-1.25085 v -14.56508 c 0,-13.41672 0.0378,-14.66294 0.4789,-15.80615 1.27262,-3.29784 5.77874,-4.86772 9.1027,-3.17126 1.28621,0.65644 1.77146,1.20119 2.52378,2.83308 l 0.60596,1.31443 v 14.69749 c 0,13.84089 -0.0288,14.75151 -0.49441,15.62436 -1.41022,2.64375 -4.21728,3.8707 -7.34495,3.21047 z m -56.46332,-55.48834 c -1.58691,-0.43338 -3.18104,-1.92926 -3.81997,-3.58447 -0.6503,-1.6847 -0.58981,-4.33203 0.13085,-5.7263 0.75855,-1.46757 2.46401,-2.95125 3.69102,-3.21101 0.55488,-0.11747 7.50661,-0.21358 15.44826,-0.21358 h 14.43939 l 1.31495,0.67651 c 4.6413,2.38786 4.64181,9.23395 0,11.62315 l -1.3141,0.67651 -14.30783,0.0538 c -11.13972,0.0418 -14.59024,-0.0233 -15.58342,-0.29459 z m 85.80157,0 c -1.58691,-0.43338 -3.18104,-1.92926 -3.81998,-3.58447 -0.65029,-1.6847 -0.5898,-4.33203 0.13085,-5.7263 0.75855,-1.46757 2.46402,-2.95125 3.69104,-3.21101 0.55487,-0.11747 7.5066,-0.21358 15.44825,-0.21358 h 14.4394 l 1.31493,0.67651 c 4.62902,2.38154 4.62953,9.24027 0,11.62315 l -1.31408,0.67651 -14.30784,0.0538 c -11.13972,0.0418 -14.59025,-0.0233 -15.58342,-0.29459 z m -29.48587,-30.05647 c -2.6071,-0.66284 -4.4205,-2.6305 -4.72237,-5.12407 -0.0924,-0.76372 -0.13072,-7.4662 -0.085,-14.89439 0.0802,-13.03506 0.10227,-13.54733 0.63472,-14.69749 1.47976,-3.19645 5.79243,-4.60814 9.02993,-2.95581 1.28621,0.65643 1.77145,1.20119 2.52378,2.83308 l 0.60596,1.31442 v 14.69749 c 0,13.84089 -0.0289,14.75151 -0.49441,15.62436 -0.68571,1.28549 -1.46098,2.08641 -2.57053,2.65554 -1.09955,0.56399 -3.71275,0.85433 -4.92204,0.54687 z m 954.90478,133.32272 c -6.3469,-1.44391 -11.5978,-6.79323 -12.9273,-13.16961 -0.61,-2.92545 -0.4889,-30.72748 0.1371,-31.49772 0.2937,-0.36131 0.9783,-0.5965 2.2656,-0.77825 2.0647,-0.29151 3.0544,-0.80038 3.0544,-1.57051 0,-0.7104 -0.908,-1.23204 -2.7153,-1.55978 -1.9117,-0.34669 -2.5397,-0.68042 -2.8585,-1.51899 -0.1388,-0.36475 -0.2522,-3.09597 -0.2522,-6.06938 0,-4.3389 0.084,-5.61536 0.4239,-6.46564 0.3844,-0.9608 0.3858,-1.17109 0.015,-2.25904 -0.3236,-0.9497 -0.3552,-1.53204 -0.1518,-2.7955 1.0057,-6.24491 5.9324,-11.39307 12.9248,-13.50591 1.7668,-0.53383 2.3341,-0.57734 5.8261,-0.44675 3.1676,0.11846 4.2589,0.26943 6.0219,0.83313 4.3166,1.38023 8.1874,4.71019 10.1856,8.76241 1.9097,3.87275 1.855,2.87184 1.7714,32.39803 l -0.075,26.39193 -0.7222,2.11855 c -1.8184,5.33313 -6.2422,9.34716 -11.9891,10.87851 -2.2468,0.5987 -8.7559,0.7502 -10.9348,0.25452 z m 123.4078,-0.14793 c -6.1982,-1.62395 -10.9795,-6.3503 -12.5209,-12.37693 -0.4895,-1.91401 -0.5121,-3.15298 -0.5077,-27.84691 0.01,-28.91513 -0.058,-27.85089 1.8824,-31.7868 2.7299,-5.53784 8.5286,-8.99973 15.0996,-9.01466 16.1801,-0.0367 29.6416,-8.01217 37.1078,-21.98462 3.2944,-6.16548 5.4326,-13.73776 6.2813,-22.24485 0.2222,-2.22749 0.1924,-3.57079 -0.1497,-6.7529 -1.1108,-10.33055 -4.7239,-18.02265 -11.7097,-24.92898 -7.0136,-6.93406 -16.0982,-11.1697 -28.1759,-13.13685 -3.4599,-0.56353 -4.1953,-0.57667 -40.2018,-0.71835 -28.6676,-0.1128 -36.8041,-0.2167 -37.2569,-0.47579 -0.3186,-0.18231 -0.9144,-0.95691 -1.3241,-1.72133 -1.0417,-1.9439 -1.4559,-1.92502 -3.7394,0.17052 -1.2496,1.1468 -2.1755,1.77671 -2.7776,1.88965 -0.4967,0.0932 -4.2275,0.12141 -8.2906,0.0627 -7.1872,-0.1038 -7.44,-0.12566 -9.3232,-0.80623 -3.0433,-1.09981 -4.7742,-2.22091 -7.2241,-4.67928 -3.9544,-3.96808 -5.1459,-7.32262 -4.943,-13.91642 0.096,-3.12107 0.2223,-4.01353 0.7977,-5.64246 2.0921,-5.92252 7.7053,-10.62298 13.9671,-11.69593 1.2355,-0.21169 15.8122,-0.27096 51.6399,-0.20997 55.1262,0.0939 51.9933,0.002 60.9084,1.79395 7.6993,1.54791 13.1589,3.31084 19.2104,6.20293 16.3007,7.79035 28.9252,19.26458 36.7466,33.39832 3.9195,7.08305 6.7084,15.32001 8.4238,24.87998 0.8224,4.58365 1.0101,15.77711 0.3721,22.18787 -0.5421,5.44578 -1.2872,10.22749 -1.7196,11.03552 -0.3765,0.7034 -1.5224,1.2055 -3.3164,1.45314 -1.9192,0.26493 -9.4518,2.5277 -9.997,3.00306 -0.2549,0.22226 -0.4634,0.60552 -0.4634,0.85167 0,0.88654 0.916,1.3257 3.3358,1.59927 5.7755,0.65292 6.6146,0.80034 7.257,1.27495 0.3641,0.26903 0.6981,0.72994 0.7422,1.02423 0.1347,0.89968 -2.2485,7.10554 -4.554,11.85831 -7.2748,14.99678 -17.6155,26.15509 -31.4179,33.90176 -5.1932,2.91474 -13.078,6.02953 -18.0807,7.14251 l -2.0369,0.45318 -0.01,15.53158 c -0.01,16.87144 -0.052,17.52929 -1.4908,20.73466 -2.0644,4.60018 -7.0646,8.56448 -12.1428,9.62697 -2.706,0.56617 -7.9837,0.49641 -10.4033,-0.1375 z m -78.3736,-6.47625 c -4.2879,-1.21025 -7.1092,-4.1416 -7.984,-8.29555 -0.4078,-1.9371 -0.4143,-49.09908 -0.01,-51.3027 0.7726,-4.17984 3.6724,-7.14056 8.3024,-8.47727 1.1814,-0.34109 2.1704,-0.42067 3.9723,-0.31964 5.0834,0.28505 8.808,2.76823 10.5231,7.01574 l 0.6151,1.52327 v 25.95232 25.95233 l -0.6052,1.4969 c -1.7268,4.27075 -5.317,6.48599 -10.9145,6.7343 -1.724,0.0765 -2.9522,-0.0116 -3.9023,-0.2797 z m 36.81,0 c -4.288,-1.21025 -7.1092,-4.1416 -7.984,-8.29555 -0.4079,-1.9371 -0.4144,-49.09908 -0.01,-51.3027 0.7726,-4.17984 3.6723,-7.14056 8.3024,-8.47727 1.1814,-0.34109 2.1704,-0.42067 3.9723,-0.31964 5.0834,0.28505 8.808,2.76823 10.523,7.01574 l 0.6151,1.52327 v 25.95232 25.95233 l -0.6052,1.4969 c -1.7266,4.27075 -5.317,6.48599 -10.9144,6.7343 -1.724,0.0765 -2.9522,-0.0116 -3.9023,-0.2797 z M 1228.964,425.62203 c -4.2436,-0.70956 -8.6214,-3.74571 -11.3096,-7.84366 -1.5406,-2.34842 -1.7302,-3.05046 -1.2556,-4.64862 0.5461,-1.83918 1.0002,-2.13228 3.9388,-2.5427 2.6825,-0.37466 3.8596,-0.89185 3.8596,-1.69571 0,-1.12543 -0.9809,-1.48733 -5.0665,-1.8692 -2.8247,-0.264 -4.0968,-0.76698 -4.4784,-1.77073 -0.1535,-0.40387 -0.2535,-8.85279 -0.2535,-21.4377 V 363.0426 l -18.2062,-8.7e-4 c -17.4587,-8.6e-4 -18.2405,-0.0217 -19.0366,-0.50722 -0.9354,-0.57035 -1.3346,-1.51396 -2.1816,-5.15575 -0.5352,-2.30115 -1.0904,-3.33983 -1.7857,-3.33983 -0.6325,0 -1.3984,1.11668 -1.9615,2.85954 -0.8121,2.51393 -1.9619,4.64648 -2.9563,5.48324 -0.8588,0.72257 -0.9122,0.73138 -3.523,0.58035 -5.0196,-0.29039 -9.2553,-2.15445 -12.7402,-5.60678 -3.5396,-3.50651 -4.8449,-6.37281 -5.0685,-11.12853 -0.2034,-4.32611 0.2428,-7.21469 1.5133,-9.79833 1.8259,-3.7127 4.464,-6.31656 8.3481,-8.2398 4.4859,-2.22124 2.0974,-2.05766 31.4378,-2.15291 l 26.1413,-0.0848 0.083,-23.22933 c 0.083,-23.21855 0.083,-23.23023 0.6783,-25.1701 0.7462,-2.4321 2.0068,-4.9573 2.5856,-5.17941 0.2424,-0.093 0.9668,0.0937 1.6099,0.41481 l 1.1692,0.58392 0.5633,-0.56335 c 0.4483,-0.44826 0.5999,-1.02384 0.7424,-2.8174 0.1968,-2.47716 0.3701,-2.80425 1.9887,-3.75282 2.6372,-1.54553 3.8791,-1.80039 8.8714,-1.82078 3.8692,-0.0158 4.8749,0.063 6.0909,0.47712 4.7741,1.62592 8.3663,4.69552 10.4209,8.90505 2.2294,4.56737 2.1297,3.56689 2.2299,22.37726 0.049,9.176 0.018,17.06744 -0.068,17.53651 -0.259,1.40564 -1.2807,2.34569 -3.3861,3.11517 -2.9104,1.06374 -3.6369,1.42166 -3.812,1.87814 -0.2824,0.73589 0.5598,1.1919 3.6417,1.97165 1.8679,0.4726 3.1384,0.93676 3.3478,1.22307 0.195,0.26682 0.3373,1.22187 0.3373,2.26455 v 1.80312 l 24.8269,0.002 c 15.9746,0.002 25.4344,0.10058 26.5309,0.27848 5.8924,0.95604 11.0651,4.6149 13.497,9.54713 1.531,3.10524 1.9506,5.35922 1.8185,9.76904 -0.091,3.02481 -0.2156,3.87984 -0.8118,5.55523 -1.4383,4.04188 -4.5739,7.53617 -8.6604,9.65105 -4.3727,2.263 -2.1548,2.10689 -31.3043,2.20344 l -25.8754,0.0857 -0.085,23.62648 -0.085,23.62648 -0.6048,1.97889 c -1.0654,3.48602 -2.5498,5.9772 -5.0724,8.51288 -3.7897,3.80934 -7.023,5.03329 -13.1084,4.96214 -1.6021,-0.0188 -3.2109,-0.0839 -3.575,-0.14479 z m 225.5294,-100.60394 c -4.9367,-1.19492 -9.1606,-5.60258 -10.2053,-10.64912 -1.8294,-8.83705 5.3583,-17.00959 14.4069,-16.38093 6.2108,0.4315 11.0343,4.56794 12.4776,10.70034 0.533,2.26379 0.3737,5.68812 -0.3317,7.13208 -0.4518,0.92516 -0.6261,1.03721 -2.0493,1.31815 -0.8555,0.16888 -1.7493,0.50097 -1.9862,0.73798 -0.3976,0.39793 -0.385,0.51025 0.1653,1.46676 0.8436,1.46654 0.7571,1.95619 -0.5297,3.00042 -3.2695,2.65316 -7.8236,3.67253 -11.9476,2.67432 z m 39.1578,0.14948 c -6.4418,-1.29301 -11.2548,-7.18924 -11.2548,-13.78791 0,-7.62063 6.9495,-13.95526 14.6975,-13.39706 6.1658,0.44421 11.032,4.57757 12.445,10.57065 2.2564,9.57026 -6.3166,18.53542 -15.8877,16.61432 z"
       id="path849" />
  </g>
</svg>
